// Jest Snapshot v1, https://goo.gl/fbAQLP

exports[`Snapshot Tests renders page/component 1`] = `
<div
  className="sc-bdnylx lmpdsS"
>
  <div
    className="sc-gtssRu"
  />
  <div
    className="sc-dlnjPT jCMmd"
  >
    <svg
      className="btn"
      color="darkred"
      fill="currentColor"
      height={20}
      onClick={[Function]}
      size={20}
      stroke="currentColor"
      strokeWidth="0"
      style={
        Object {
          "color": "darkred",
        }
      }
      version="1.1"
      viewBox="0 0 16 16"
      width={20}
      xmlns="http://www.w3.org/2000/svg"
    >
      <path
        d="M15.854 12.854c-0-0-0-0-0-0l-4.854-4.854 4.854-4.854c0-0 0-0 0-0 0.052-0.052 0.090-0.113 0.114-0.178 0.066-0.178 0.028-0.386-0.114-0.529l-2.293-2.293c-0.143-0.143-0.351-0.181-0.529-0.114-0.065 0.024-0.126 0.062-0.178 0.114 0 0-0 0-0 0l-4.854 4.854-4.854-4.854c-0-0-0-0-0-0-0.052-0.052-0.113-0.090-0.178-0.114-0.178-0.066-0.386-0.029-0.529 0.114l-2.293 2.293c-0.143 0.143-0.181 0.351-0.114 0.529 0.024 0.065 0.062 0.126 0.114 0.178 0 0 0 0 0 0l4.854 4.854-4.854 4.854c-0 0-0 0-0 0-0.052 0.052-0.090 0.113-0.114 0.178-0.066 0.178-0.029 0.386 0.114 0.529l2.293 2.293c0.143 0.143 0.351 0.181 0.529 0.114 0.065-0.024 0.126-0.062 0.178-0.114 0-0 0-0 0-0l4.854-4.854 4.854 4.854c0 0 0 0 0 0 0.052 0.052 0.113 0.090 0.178 0.114 0.178 0.066 0.386 0.029 0.529-0.114l2.293-2.293c0.143-0.143 0.181-0.351 0.114-0.529-0.024-0.065-0.062-0.126-0.114-0.178z"
      />
    </svg>
    <svg
      className="btn"
      color="darkgreen"
      fill="currentColor"
      height={24}
      onClick={[Function]}
      size={24}
      stroke="currentColor"
      strokeWidth="0"
      style={
        Object {
          "color": "darkgreen",
        }
      }
      version="1.1"
      viewBox="0 0 16 16"
      width={24}
      xmlns="http://www.w3.org/2000/svg"
    >
      <path
        d="M13.5 2l-7.5 7.5-3.5-3.5-2.5 2.5 6 6 10-10z"
      />
    </svg>
  </div>
</div>
`;
